{
  "results": [
    {
      "vote_count": 21,
      "id": 429617,
      "video": false,
      "vote_average": 6.1,
      "title": "Spider-Man: Far from Home",
      "popularity": 118.558,
      "poster_path": "/dzg8lHS78l5Xxpd2EM5H541Qn2s.jpg",
      "original_language": "en",
      "original_title": "Spider-Man: Far from Home",
      "genre_ids": [
        28,
        12,
        878
      ],
      "backdrop_path": "/dihW2yTsvQlust7mSuAqJDtqW7k.jpg",
      "adult": false,
      "overview": "Peter Parker and his friends go on a summer trip to Europe. However, they will hardly be able to rest - Peter will have to agree to help Nick Fury uncover the mystery of creatures that cause natural disasters and destruction throughout the continent.",
      "release_date": "2019-06-28"
    },
    {
      "vote_count": 79,
      "id": 533642,
      "video": false,
      "vote_average": 5.9,
      "title": "Child's Play",
      "popularity": 105.079,
      "poster_path": "/rpS7ROczWulqfaXG2klYapULXKm.jpg",
      "original_language": "en",
      "original_title": "Child's Play",
      "genre_ids": [
        27
      ],
      "backdrop_path": "/vHse4QK31Vc3X7BKKU5GOQhYxv6.jpg",
      "adult": false,
      "overview": "Karen, a single mother, gifts her son Andy a Buddi doll for his birthday, unaware of its more sinister nature. A contemporary re-imagining of the 1988 horror classic.",
      "release_date": "2019-06-19"
    },
    {
      "vote_count": 5,
      "id": 521029,
      "video": false,
      "vote_average": 6.4,
      "title": "Annabelle Comes Home",
      "popularity": 91.987,
      "poster_path": "/jsbt03UnPPt14AYRMcGaoqtwNxQ.jpg",
      "original_language": "en",
      "original_title": "Annabelle Comes Home",
      "genre_ids": [
        27
      ],
      "backdrop_path": "/4DHHymlttV0YskaxoWtuIDNDhPl.jpg",
      "adult": false,
      "overview": "Determined to keep Annabelle from wreaking more havoc, demonologists Ed and Lorraine Warren bring the possessed doll to the locked artifacts room in their home, placing her “safely” behind sacred glass and enlisting a priest’s holy blessing. But an unholy night of horror awaits as Annabelle awakens the evil spirits in the room, who all set their sights on a new target—the Warrens' ten-year-old daughter, Judy, and her friends.",
      "release_date": "2019-06-26"
    },
    {
      "vote_count": 23,
      "id": 480042,
      "video": false,
      "vote_average": 5.4,
      "title": "Escape Plan: The Extractors",
      "popularity": 91.81,
      "poster_path": "/mgHu3OcwEFAm3GV9p2AoCoCEJPP.jpg",
      "original_language": "en",
      "original_title": "Escape Plan: The Extractors",
      "genre_ids": [
        28,
        53
      ],
      "backdrop_path": "/ygWKYTu7OnZKF9H5NsgjL9iURGV.jpg",
      "adult": false,
      "overview": "After security expert Ray Breslin is hired to rescue the kidnapped daughter of a Hong Kong tech mogul from a formidable Latvian prison, Breslin's girlfriend is also captured. Now he and his team must pull off a deadly rescue mission to confront their sadistic foe and save the hostages before time runs out.",
      "release_date": "2019-06-20"
    },
    {
      "vote_count": 16,
      "id": 566555,
      "video": false,
      "vote_average": 4.8,
      "title": "Detective Conan: The Fist of Blue Sapphire",
      "popularity": 90.225,
      "poster_path": "/86Y6qM8zTn3PFVfCm9J98Ph7JEB.jpg",
      "original_language": "ja",
      "original_title": "名探偵コナン 紺青の拳（フィスト）",
      "genre_ids": [
        16,
        28,
        18,
        9648,
        35
      ],
      "backdrop_path": "/wf6VDSi4aFCZfuD8sX8JAKLfJ5m.jpg",
      "adult": false,
      "overview": "23rd movie in the \"Detective Conan\" franchise.",
      "release_date": "2019-04-12"
    },
    {
      "vote_count": 13,
      "id": 515195,
      "video": false,
      "vote_average": 6.2,
      "title": "Yesterday",
      "popularity": 60.742,
      "poster_path": "/gAwTexdoUTmXUghkTbbK5IFrotF.jpg",
      "original_language": "en",
      "original_title": "Yesterday",
      "genre_ids": [
        35,
        10402,
        10749
      ],
      "backdrop_path": "/rLBkg55NUSwFjPjVYHOXyQc0hAL.jpg",
      "adult": false,
      "overview": "A struggling musician realizes he's the only person on Earth who can remember The Beatles.",
      "release_date": "2019-06-27"
    },
    {
      "vote_count": 19,
      "id": 484641,
      "video": false,
      "vote_average": 4.6,
      "title": "Anna",
      "popularity": 57.912,
      "poster_path": "/7onQnzh1c1bKiepLKXozOdPw1dP.jpg",
      "original_language": "en",
      "original_title": "Anna",
      "genre_ids": [
        53,
        28
      ],
      "backdrop_path": "/jbMfZtei6aQABPSmQra7tU5ZScD.jpg",
      "adult": false,
      "overview": "Beneath Anna Poliatova's striking beauty lies a secret that will unleash her indelible strength and skill to become one of the world's most feared government assassins.",
      "release_date": "2019-06-20"
    },
    {
      "vote_count": 175,
      "id": 412117,
      "video": false,
      "vote_average": 6.3,
      "title": "The Secret Life of Pets 2",
      "popularity": 50.493,
      "poster_path": "/q3mKnSkzp1doIsCye6ap4KIUAbu.jpg",
      "original_language": "en",
      "original_title": "The Secret Life of Pets 2",
      "genre_ids": [
        12,
        16,
        35,
        10751
      ],
      "backdrop_path": "/kTQQjh53k2twvLDwLH8c0m4w6HR.jpg",
      "adult": false,
      "overview": "What happens with our pets when we’re not home? This movie continues the original movie with Max and his friends.",
      "release_date": "2019-05-24"
    },
    {
      "vote_count": 0,
      "id": 420818,
      "video": false,
      "vote_average": 0,
      "title": "The Lion King",
      "popularity": 48.415,
      "poster_path": "/dzBtMocZuJbjLOXvrl4zGYigDzh.jpg",
      "original_language": "en",
      "original_title": "The Lion King",
      "genre_ids": [
        12,
        16,
        10751,
        18
      ],
      "backdrop_path": "/1TUg5pO1VZ4B0Q1amk3OlXvlpXV.jpg",
      "adult": false,
      "overview": "Simba idolises his father, King Mufasa, and takes to heart his own royal destiny. But not everyone in the kingdom celebrates the new cub's arrival. Scar, Mufasa's brother—and former heir to the throne—has plans of his own. The battle for Pride Rock is ravaged with betrayal, tragedy and drama, ultimately resulting in Simba's exile. With help from a curious pair of newfound friends, Simba will have to figure out how to grow up and take back what is rightfully his.",
      "release_date": "2019-07-12"
    },
    {
      "vote_count": 820,
      "id": 527641,
      "video": false,
      "vote_average": 8.1,
      "title": "Five Feet Apart",
      "popularity": 41.364,
      "poster_path": "/kreTuJBkUjVWePRfhHZuYfhNE1T.jpg",
      "original_language": "en",
      "original_title": "Five Feet Apart",
      "genre_ids": [
        10749,
        18
      ],
      "backdrop_path": "/d7wa3VpUpKDQ7GG9EMw8zSJCFoI.jpg",
      "adult": false,
      "overview": "Seventeen-year-old Stella spends most of her time in the hospital as a cystic fibrosis patient. Her life is full of routines, boundaries and self-control -- all of which get put to the test when she meets Will, an impossibly charming teen who has the same illness. There's an instant flirtation, though restrictions dictate that they must maintain a safe distance between them. As their connection intensifies, so does the temptation to throw the rules out the window and embrace that attraction.",
      "release_date": "2019-03-15"
    },
    {
      "vote_count": 198,
      "id": 502416,
      "video": false,
      "vote_average": 5.6,
      "title": "Ma",
      "popularity": 41.161,
      "poster_path": "/6n7ASmQ1wY2cxTubFFGlcvPpyk7.jpg",
      "original_language": "en",
      "original_title": "Ma",
      "genre_ids": [
        53,
        27
      ],
      "backdrop_path": "/mBOv5YrX5QGr5CusK0PKSHuxOt9.jpg",
      "adult": false,
      "overview": "Sue Ann is a loner who keeps to herself in her quiet Ohio town. One day, she is asked by Maggie, a new teenager in town, to buy some booze for her and her friends, and Sue Ann sees the chance to make some unsuspecting, if younger, friends of her own.",
      "release_date": "2019-05-29"
    },
    {
      "vote_count": 196,
      "id": 496243,
      "video": false,
      "vote_average": 8.9,
      "title": "Parasite",
      "popularity": 35.971,
      "poster_path": "/7IiTTgloJzvGI1TAYymCfbfl3vT.jpg",
      "original_language": "ko",
      "original_title": "기생충",
      "genre_ids": [
        18,
        53
      ],
      "backdrop_path": "/ny5aCtglk2kceGAuAdiyqbhBBAf.jpg",
      "adult": false,
      "overview": "All unemployed, Ki-taek's family takes peculiar interest in the wealthy and glamorous Parks for their livelihood until they get entangled in an unexpected incident.",
      "release_date": "2019-05-30"
    },
    {
      "vote_count": 133,
      "id": 400157,
      "video": false,
      "vote_average": 6.1,
      "title": "Wonder Park",
      "popularity": 33.702,
      "poster_path": "/8KomINZhIuJeB4oB7k7tkq8tmE.jpg",
      "original_language": "en",
      "original_title": "Wonder Park",
      "genre_ids": [
        35,
        16,
        12,
        10751,
        14
      ],
      "backdrop_path": "/nJyAdKPnW15IAvC6sLBTE0lp6Dv.jpg",
      "adult": false,
      "overview": "The story of a magnificent amusement park where the imagination of a wildly creative girl named June comes alive.",
      "release_date": "2019-03-14"
    },
    {
      "vote_count": 294,
      "id": 505600,
      "video": false,
      "vote_average": 7.3,
      "title": "Booksmart",
      "popularity": 25.327,
      "poster_path": "/2aSxRDmisJP90H3S0aocyuQIe4z.jpg",
      "original_language": "en",
      "original_title": "Booksmart",
      "genre_ids": [
        35,
        18
      ],
      "backdrop_path": "/wcAqndL2MkIjPrCrYeuE794weNE.jpg",
      "adult": false,
      "overview": "Two academic teenage superstars realize, on the eve of their high school graduation, that they should have worked less and played more. Determined to never fall short of their peers, the girls set out on a mission to cram four years of fun into one night.",
      "release_date": "2019-05-24"
    },
    {
      "vote_count": 245,
      "id": 535581,
      "video": false,
      "vote_average": 5.8,
      "title": "The Dead Don't Die",
      "popularity": 24.271,
      "poster_path": "/ycMSfP8KRFsVUWfbSxSFpD97QfD.jpg",
      "original_language": "en",
      "original_title": "The Dead Don't Die",
      "genre_ids": [
        35,
        27
      ],
      "backdrop_path": "/sLmVJIvwlGioO8C0wAOdzJWGUHP.jpg",
      "adult": false,
      "overview": "In a small peaceful town, zombies suddenly rise to terrorize the town. Now three bespectacled police officers and a strange Scottish morgue expert must band together to defeat the undead.",
      "release_date": "2019-05-15"
    },
    {
      "vote_count": 2208,
      "id": 447200,
      "video": false,
      "vote_average": 6.1,
      "title": "Skyscraper",
      "popularity": 23.703,
      "poster_path": "/5LYSsOPzuP13201qSzMjNxi8FxN.jpg",
      "original_language": "en",
      "original_title": "Skyscraper",
      "genre_ids": [
        28
      ],
      "backdrop_path": "/oMKFQmoVgB69fyXfSMu0lGlHJP2.jpg",
      "adult": false,
      "overview": "Framed and on the run, a former FBI agent must save his family from a blazing fire in the world's tallest building.",
      "release_date": "2018-07-11"
    },
    {
      "vote_count": 150,
      "id": 411728,
      "video": false,
      "vote_average": 7.1,
      "title": "The Professor and the Madman",
      "popularity": 22.279,
      "poster_path": "/gtGCDLhfjW96qVarwctnuTpGOtD.jpg",
      "original_language": "en",
      "original_title": "The Professor and the Madman",
      "genre_ids": [
        18,
        36,
        9648,
        53
      ],
      "backdrop_path": "/zhNfM1CSQqJtIqelwlK9iKtSd9P.jpg",
      "adult": false,
      "overview": "Professor James Murray begins work compiling words for the first edition of the Oxford English Dictionary in the mid 19th century, and receives over 10,000 entries from a patient at Broadmoor Criminal Lunatic Asylum, Dr. William Minor.",
      "release_date": "2019-03-07"
    },
    {
      "vote_count": 358,
      "id": 505436,
      "video": false,
      "vote_average": 6,
      "title": "Serial (Bad) Weddings 2",
      "popularity": 21.359,
      "poster_path": "/1ElH1Jd9dTKzpm81BYOPJQExXzz.jpg",
      "original_language": "fr",
      "original_title": "Qu'est-ce qu'on a encore fait au bon Dieu ?",
      "genre_ids": [
        35
      ],
      "backdrop_path": "/mCb3FjW9p2Fl1QZU69uqt5r7n2N.jpg",
      "adult": false,
      "overview": "Claude and Marie Verneuil face a new crisis. The four spouses of their daughters, David, Rachid, Chao and Charles decided to leave France for various reasons. Here they are imagining their lives elsewhere.",
      "release_date": "2019-01-30"
    },
    {
      "vote_count": 145,
      "id": 459992,
      "video": false,
      "vote_average": 6.9,
      "title": "Long Shot",
      "popularity": 21.062,
      "poster_path": "/m2ttWZ8rMRwIMT7zA48Jo6mTkDS.jpg",
      "original_language": "en",
      "original_title": "Long Shot",
      "genre_ids": [
        35,
        10749
      ],
      "backdrop_path": "/88r25ghJzVYKq0vaOApqEOZsQlD.jpg",
      "adult": false,
      "overview": "When Fred Flarsky reunites with his first crush, one of the most influential women in the world, Charlotte Field, he charms her. As she prepares to make a run for the Presidency, Charlotte hires Fred as her speechwriter and sparks fly.",
      "release_date": "2019-05-02"
    },
    {
      "vote_count": 341,
      "id": 452832,
      "video": false,
      "vote_average": 5.1,
      "title": "Serenity",
      "popularity": 20.901,
      "poster_path": "/hgWAcic93phg4DOuQ8NrsgQWiqu.jpg",
      "original_language": "en",
      "original_title": "Serenity",
      "genre_ids": [
        53
      ],
      "backdrop_path": "/oOROXoQ402tHgK6NowmMUSLffkW.jpg",
      "adult": false,
      "overview": "Baker Dill is a fishing boat captain leading tours off a tranquil, tropical enclave called Plymouth Island. His quiet life is shattered, however, when his ex-wife Karen tracks him down with a desperate plea for help.",
      "release_date": "2019-01-24"
    }
  ],
  "page": 1,
  "total_results": 240,
  "dates": {
    "maximum": "2019-07-24",
    "minimum": "2019-07-03"
  },
  "total_pages": 12
}
