{
  "page": 1,
  "total_results": 19839,
  "total_pages": 992,
  "results": [
    {
      "vote_count": 396,
      "id": 301528,
      "video": false,
      "vote_average": 7.6,
      "title": "Toy Story 4",
      "popularity": 327.068,
      "poster_path": "/w9kR8qbmQ01HwnvK4alvnQ2ca0L.jpg",
      "original_language": "en",
      "original_title": "Toy Story 4",
      "genre_ids": [
        12,
        16,
        35,
        10751
      ],
      "backdrop_path": "/m67smI1IIMmYzCl9axvKNULVKLr.jpg",
      "adult": false,
      "overview": "Woody has always been confident about his place in the world and that his priority is taking care of his kid, whether that's Andy or Bonnie. But when Bonnie adds a reluctant new toy called \"Forky\" to her room, a road trip adventure alongside old and new friends will show Woody how big the world can be for a toy.",
      "release_date": "2019-06-19"
    },
    {
      "vote_count": 975,
      "id": 320288,
      "video": false,
      "vote_average": 6.4,
      "title": "Dark Phoenix",
      "popularity": 204.841,
      "poster_path": "/kZv92eTc0Gg3mKxqjjDAM73z9cy.jpg",
      "original_language": "en",
      "original_title": "Dark Phoenix",
      "genre_ids": [
        878,
        28
      ],
      "backdrop_path": "/phxiKFDvPeQj4AbkvJLmuZEieDU.jpg",
      "adult": false,
      "overview": "The X-Men face their most formidable and powerful foe when one of their own, Jean Grey, starts to spiral out of control. During a rescue mission in outer space, Jean is nearly killed when she's hit by a mysterious cosmic force. Once she returns home, this force not only makes her infinitely more powerful, but far more unstable. The X-Men must now band together to save her soul and battle aliens that want to use Grey's new abilities to rule the galaxy.",
      "release_date": "2019-06-05"
    },
    {
      "vote_count": 5946,
      "id": 299537,
      "video": false,
      "vote_average": 7,
      "title": "Captain Marvel",
      "popularity": 154.096,
      "poster_path": "/AtsgWhDnHTq68L0lLsUrCnM7TjG.jpg",
      "original_language": "en",
      "original_title": "Captain Marvel",
      "genre_ids": [
        28,
        12,
        878
      ],
      "backdrop_path": "/w2PMyoyLU22YvrGK3smVM9fW1jj.jpg",
      "adult": false,
      "overview": "The story follows Carol Danvers as she becomes one of the universe’s most powerful heroes when Earth is caught in the middle of a galactic war between two alien races. Set in the 1990s, Captain Marvel is an all-new adventure from a previously unseen period in the history of the Marvel Cinematic Universe.",
      "release_date": "2019-03-06"
    },
    {
      "vote_count": 307,
      "id": 479455,
      "video": false,
      "vote_average": 6.1,
      "title": "Men in Black: International",
      "popularity": 132.645,
      "poster_path": "/dPrUPFcgLfNbmDL8V69vcrTyEfb.jpg",
      "original_language": "en",
      "original_title": "Men in Black: International",
      "genre_ids": [
        28,
        35,
        878,
        12
      ],
      "backdrop_path": "/2FYzxgLNuNVwncilzUeCGbOQzP7.jpg",
      "adult": false,
      "overview": "The Men in Black have always protected the Earth from the scum of the universe. In this new adventure, they tackle their biggest, most global threat to date: a mole in the Men in Black organization.",
      "release_date": "2019-06-12"
    },
    {
      "vote_count": 49,
      "id": 280960,
      "video": false,
      "vote_average": 4.4,
      "title": "Catarina and the others",
      "popularity": 125.216,
      "poster_path": "/kZMCbp0o46Tsg43omSHNHJKNTx9.jpg",
      "original_language": "pt",
      "original_title": "Catarina e os Outros",
      "genre_ids": [
        18,
        9648
      ],
      "backdrop_path": "/8FfD5WXHrJLx0r4expl9IIBMsOW.jpg",
      "adult": false,
      "overview": "Outside, the first sun rays break the dawn.  Sixteen years old Catarina can't fall asleep.  Inconsequently, in the big city adults are moved by desire...  Catarina found she is HIV positive. She wants to drag everyone else along.",
      "release_date": "2011-03-01"
    },
    {
      "vote_count": 14126,
      "id": 299536,
      "video": false,
      "vote_average": 8.3,
      "title": "Avengers: Infinity War",
      "popularity": 122.586,
      "poster_path": "/7WsyChQLEftFiDOVTGkv3hFpyyt.jpg",
      "original_language": "en",
      "original_title": "Avengers: Infinity War",
      "genre_ids": [
        12,
        28,
        14
      ],
      "backdrop_path": "/bOGkgRGdhrBYJSLpXaxhXVstddV.jpg",
      "adult": false,
      "overview": "As the Avengers and their allies have continued to protect the world from threats too large for any one hero to handle, a new danger has emerged from the cosmic shadows: Thanos. A despot of intergalactic infamy, his goal is to collect all six Infinity Stones, artifacts of unimaginable power, and use them to inflict his twisted will on all of reality. Everything the Avengers have fought for has led up to this moment - the fate of Earth and existence itself has never been more uncertain.",
      "release_date": "2018-04-25"
    },
    {
      "vote_count": 1863,
      "id": 420817,
      "video": false,
      "vote_average": 7.2,
      "title": "Aladdin",
      "popularity": 120.111,
      "poster_path": "/3iYQTLGoy7QnjcUYRJy4YrAgGvp.jpg",
      "original_language": "en",
      "original_title": "Aladdin",
      "genre_ids": [
        12,
        14,
        10749,
        35,
        10751
      ],
      "backdrop_path": "/v4yVTbbl8dE1UP2dWu5CLyaXOku.jpg",
      "adult": false,
      "overview": "A kindhearted street urchin named Aladdin embarks on a magical adventure after finding a lamp that releases a wisecracking genie while a power-hungry Grand Vizier vies for the same lamp that has the power to make their deepest wishes come true.",
      "release_date": "2019-05-22"
    },
    {
      "vote_count": 21,
      "id": 429617,
      "video": false,
      "vote_average": 6.1,
      "title": "Spider-Man: Far from Home",
      "popularity": 118.558,
      "poster_path": "/dzg8lHS78l5Xxpd2EM5H541Qn2s.jpg",
      "original_language": "en",
      "original_title": "Spider-Man: Far from Home",
      "genre_ids": [
        28,
        12,
        878
      ],
      "backdrop_path": "/dihW2yTsvQlust7mSuAqJDtqW7k.jpg",
      "adult": false,
      "overview": "Peter Parker and his friends go on a summer trip to Europe. However, they will hardly be able to rest - Peter will have to agree to help Nick Fury uncover the mystery of creatures that cause natural disasters and destruction throughout the continent.",
      "release_date": "2019-06-28"
    },
    {
      "vote_count": 27,
      "id": 532321,
      "video": false,
      "vote_average": 5.4,
      "title": "Re: Zero kara Hajimeru Isekai Seikatsu - Memory Snow",
      "popularity": 117.159,
      "poster_path": "/xqR4ABkFTFYe8NDJi3knwWX7zfn.jpg",
      "original_language": "ja",
      "original_title": "Re:ゼロから始める異世界生活 Memory Snow",
      "genre_ids": [
        16,
        12
      ],
      "backdrop_path": "/8sNz2DxYiYqGkxk66U8BqvuZZjE.jpg",
      "adult": false,
      "overview": "Subaru and friends finally get a moment of peace, and Subaru goes on a certain secret mission that he must not let anyone find out about! However, even though Subaru is wearing a disguise, Petra and other children of the village immediately figure out who he is. Now that his mission was exposed within five seconds of it starting, what will happen with Subaru's \"date course\" with Emilia?",
      "release_date": "2018-10-06"
    },
    {
      "vote_count": 1254,
      "id": 458156,
      "video": false,
      "vote_average": 7.1,
      "title": "John Wick: Chapter 3 – Parabellum",
      "popularity": 114.778,
      "poster_path": "/ziEuG1essDuWuC5lpWUaw1uXY2O.jpg",
      "original_language": "en",
      "original_title": "John Wick: Chapter 3 – Parabellum",
      "genre_ids": [
        80,
        28,
        53
      ],
      "backdrop_path": "/vVpEOvdxVBP2aV166j5Xlvb5Cdc.jpg",
      "adult": false,
      "overview": "Super-assassin John Wick returns with a $14 million price tag on his head and an army of bounty-hunting killers on his trail. After killing a member of the shadowy international assassin’s guild, the High Table, John Wick is excommunicado, but the world’s most ruthless hit men and women await his every turn.",
      "release_date": "2019-05-15"
    },
    {
      "vote_count": 1356,
      "id": 329996,
      "video": false,
      "vote_average": 6.5,
      "title": "Dumbo",
      "popularity": 108.077,
      "poster_path": "/279PwJAcelI4VuBtdzrZASqDPQr.jpg",
      "original_language": "en",
      "original_title": "Dumbo",
      "genre_ids": [
        12,
        10751,
        14
      ],
      "backdrop_path": "/5tFt6iuGnKapHl5tw0X0cKcnuVo.jpg",
      "adult": false,
      "overview": "A young elephant, whose oversized ears enable him to fly, helps save a struggling circus, but when the circus plans a new venture, Dumbo and his friends discover dark secrets beneath its shiny veneer.",
      "release_date": "2019-03-27"
    },
    {
      "vote_count": 79,
      "id": 533642,
      "video": false,
      "vote_average": 5.9,
      "title": "Child's Play",
      "popularity": 105.079,
      "poster_path": "/rpS7ROczWulqfaXG2klYapULXKm.jpg",
      "original_language": "en",
      "original_title": "Child's Play",
      "genre_ids": [
        27
      ],
      "backdrop_path": "/vHse4QK31Vc3X7BKKU5GOQhYxv6.jpg",
      "adult": false,
      "overview": "Karen, a single mother, gifts her son Andy a Buddi doll for his birthday, unaware of its more sinister nature. A contemporary re-imagining of the 1988 horror classic.",
      "release_date": "2019-06-19"
    },
    {
      "vote_count": 7203,
      "id": 299534,
      "video": false,
      "vote_average": 8.4,
      "title": "Avengers: Endgame",
      "popularity": 103.698,
      "poster_path": "/or06FN3Dka5tukK1e9sl16pB3iy.jpg",
      "original_language": "en",
      "original_title": "Avengers: Endgame",
      "genre_ids": [
        12,
        878,
        28
      ],
      "backdrop_path": "/7RyHsO4yDXtBv1zUU3mTpHeQ0d5.jpg",
      "adult": false,
      "overview": "After the devastating events of Avengers: Infinity War, the universe is in ruins due to the efforts of the Mad Titan, Thanos. With the help of remaining allies, the Avengers must assemble once more in order to undo Thanos' actions and restore order to the universe once and for all, no matter what consequences may be in store.",
      "release_date": "2019-04-24"
    },
    {
      "vote_count": 5,
      "id": 521029,
      "video": false,
      "vote_average": 6.4,
      "title": "Annabelle Comes Home",
      "popularity": 91.987,
      "poster_path": "/jsbt03UnPPt14AYRMcGaoqtwNxQ.jpg",
      "original_language": "en",
      "original_title": "Annabelle Comes Home",
      "genre_ids": [
        27
      ],
      "backdrop_path": "/4DHHymlttV0YskaxoWtuIDNDhPl.jpg",
      "adult": false,
      "overview": "Determined to keep Annabelle from wreaking more havoc, demonologists Ed and Lorraine Warren bring the possessed doll to the locked artifacts room in their home, placing her “safely” behind sacred glass and enlisting a priest’s holy blessing. But an unholy night of horror awaits as Annabelle awakens the evil spirits in the room, who all set their sights on a new target—the Warrens' ten-year-old daughter, Judy, and her friends.",
      "release_date": "2019-06-26"
    },
    {
      "vote_count": 23,
      "id": 480042,
      "video": false,
      "vote_average": 5.4,
      "title": "Escape Plan: The Extractors",
      "popularity": 91.81,
      "poster_path": "/mgHu3OcwEFAm3GV9p2AoCoCEJPP.jpg",
      "original_language": "en",
      "original_title": "Escape Plan: The Extractors",
      "genre_ids": [
        28,
        53
      ],
      "backdrop_path": "/ygWKYTu7OnZKF9H5NsgjL9iURGV.jpg",
      "adult": false,
      "overview": "After security expert Ray Breslin is hired to rescue the kidnapped daughter of a Hong Kong tech mogul from a formidable Latvian prison, Breslin's girlfriend is also captured. Now he and his team must pull off a deadly rescue mission to confront their sadistic foe and save the hostages before time runs out.",
      "release_date": "2019-06-20"
    },
    {
      "vote_count": 7619,
      "id": 920,
      "video": false,
      "vote_average": 6.7,
      "title": "Cars",
      "popularity": 91.333,
      "poster_path": "/jpfkzbIXgKZqCZAkEkFH2VYF63s.jpg",
      "original_language": "en",
      "original_title": "Cars",
      "genre_ids": [
        16,
        12,
        35,
        10751
      ],
      "backdrop_path": "/a1MlbLBk5Sy6YvMbSuKfwGlDVlb.jpg",
      "adult": false,
      "overview": "Lightning McQueen, a hotshot rookie race car driven to succeed, discovers that life is about the journey, not the finish line, when he finds himself unexpectedly detoured in the sleepy Route 66 town of Radiator Springs. On route across the country to the big Piston Cup Championship in California to compete against two seasoned pros, McQueen gets to know the town's offbeat characters.",
      "release_date": "2006-06-08"
    },
    {
      "vote_count": 2,
      "id": 143417,
      "video": false,
      "vote_average": 1.3,
      "title": "Blue Film: Estimation",
      "popularity": 91.091,
      "poster_path": "/4B8GnbdCklT2hkDzvMPoRjfbYNt.jpg",
      "original_language": "ja",
      "original_title": "蒼いフィルム　品さだめ",
      "genre_ids": [],
      "backdrop_path": null,
      "adult": false,
      "overview": "The film depicts the plight of a female office worker whose boss introduces to the world of pornographic films.",
      "release_date": "1968-03-01"
    },
    {
      "vote_count": 16,
      "id": 566555,
      "video": false,
      "vote_average": 4.8,
      "title": "Detective Conan: The Fist of Blue Sapphire",
      "popularity": 90.225,
      "poster_path": "/86Y6qM8zTn3PFVfCm9J98Ph7JEB.jpg",
      "original_language": "ja",
      "original_title": "名探偵コナン 紺青の拳（フィスト）",
      "genre_ids": [
        16,
        28,
        18,
        9648,
        35
      ],
      "backdrop_path": "/wf6VDSi4aFCZfuD8sX8JAKLfJ5m.jpg",
      "adult": false,
      "overview": "23rd movie in the \"Detective Conan\" franchise.",
      "release_date": "2019-04-12"
    },
    {
      "vote_count": 1945,
      "id": 287947,
      "video": false,
      "vote_average": 7.1,
      "title": "Shazam!",
      "popularity": 89.207,
      "poster_path": "/xnopI5Xtky18MPhK40cZAGAOVeV.jpg",
      "original_language": "en",
      "original_title": "Shazam!",
      "genre_ids": [
        28,
        12,
        35,
        14
      ],
      "backdrop_path": "/nmV9MdbzST4xv8WMHwhVgxkHHjM.jpg",
      "adult": false,
      "overview": "A boy is given the ability to become an adult superhero in times of need with a single magic word.",
      "release_date": "2019-03-23"
    },
    {
      "vote_count": 1172,
      "id": 537915,
      "video": false,
      "vote_average": 5.8,
      "title": "After",
      "popularity": 85.499,
      "poster_path": "/u3B2YKUjWABcxXZ6Nm9h10hLUbh.jpg",
      "original_language": "en",
      "original_title": "After",
      "genre_ids": [
        18,
        10749
      ],
      "backdrop_path": "/997ToEZvF2Obp9zNZbY5ELVnmrW.jpg",
      "adult": false,
      "overview": "A young woman falls for a guy with a dark secret and the two embark on a rocky relationship.",
      "release_date": "2019-04-11"
    }
  ]
}
